"CAT NO","Product Type","Manufacturer","ASP","Model","Authority Limit","Claimback/Invoice Noise"
0870522,"LCD TV <32INCH","PANASONIC",489.39,"TX-26LXD80",0.00,"CB"
0870560,"LCD TV 32INCH","SONY",831.89,"KDL32W4000U",0.00,"CB"
0870625,"LCD TV <32INCH","SONY",349.99,"KDL20S3000U",0.00,"CB"
0870632,"LCD TV <32INCH","SONY",349.99,"KDL20S3030U",0.00,"CB"
0870649,"LCD TV <32INCH","SONY",349.99,"KDL20S3040U",0.00,"CB"
0870656,"LCD TV <32INCH","SONY",349.99,"KDL20S3050U",0.00,"CB"
0870663,"LCD TV <32INCH","SONY",349.99,"KDL20S3060",0.00,"CB"
0870670,"LCD TV <32INCH","SONY",349.99,"KDL20S3070U",0.00,"CB"
0870687,"LCD TV <32INCH","SONY",499.99,"KDL-26S550",0.00,"CB"
0870704,"LCD TV <32INCH","PANASONIC",342.49,"TX-19LXD8",0.00,"CB"
0870711,"LCD TV <32INCH","SAMSUNG",293.59,"LE 19A6561DXXU",0.00,"CB"
0870838,"LCD TV <32INCH","SONY",349.99,"KDL20B4050U",0.00,"CB"
0870852,"LCD TV 32INCH","SAMSUNG",799.99,"LE32B650T2WXXU",0.00,"CB"
0870869,"LCD TV <32INCH","JVC",299.99,"LT-19DA9BJ",111.00,"IN"
0870876,"LCD TV 32INCH","SAMSUNG",587.19,"L32A558P3FXXU",0.00,"CB"
0870962,"LCD TV 32INCH","TOSHIBA",449.99,"32AV554DB",174.00,"IN"
0870993,"LCD TV 32INCH","PANASONIC",587.19,"TX32LXD85",0.00,"CB"
0871019,"LCD/PLASMA TV 33-46INCH","SAMSUNG",587.19,"LE37A457C1DXXU",0.00,"CB"
0871057,"LCD TV <32INCH","SONY",349.99,"KDL2053020",0.00,"CB"
0871064,"LCD TV <32INCH","SONY",289.96,"KDL19",0.00,"CB"
0871129,"LCD TV 32INCH","PANASONIC",489.39,"TX-32LXD80",0.00,"CB"
0871143,"LCD TV 32INCH","TOSHIBA",538.29,"32XV553DB",207.11,"IN"
0871150,"LCD TV 32INCH","SAMSUNG",684.99,"LE32A656A1FXXU",0.00,"CB"
0871167,"LCD TV 32INCH","PANASONIC",782.99,"TX-32LZD81",0.00,"CB"
0871174,"LCD/PLASMA TV 33-46INCH","SAMSUNG",636.19,"LE37A558P3FXXU",0.00,"CB"
0871198,"LCD TV <32INCH","SAMSUNG",293.59,"LE22A455",0.00,"CB"
0871208,"LCD TV 32INCH","SONY",729.99,"KDL32V5500U",0.00,"CB"
0871215,"LCD/PLASMA TV 33-46INCH","SONY",949.99,"KDL37W5500U",0.00,"CB"
0871222,"LCD TV <32INCH","TOSHIBA",259.99,"19AV616DB",94.20,"IN"
0871239,"LCD TV/DVD COMBI <32INCH","TOSHIBA",269.99,"19DV616DB",105.00,"IN"
0871246,"LCD TV <32INCH","PANASONIC",329.99,"TX-L19X10B",0.00,"CB"
0871253,"LCD TV <32INCH","SAMSUNG",259.99,"LE19B541C4WXXU",0.00,"CB"
0871260,"LCD TV <32INCH","SAMSUNG",329.99,"LE19B650T6WXXU",0.00,"CB"
0871284,"LCD TV <32INCH","TOSHIBA",299.99,"22AV616DB",111.60,"IN"
0871291,"LCD TV 32INCH","SAMSUNG",1199.99,"LE32B7020VWXXU",0.00,"CB"
0871301,"LCD TV 32INCH","PANASONIC",549.99,"TXL32X15B",0.00,"CB"
0871318,"LCD TV 32INCH","PANASONIC",599.99,"TX-L32S10B",0.00,"CB"
0871325,"LCD/PLASMA TV 33-46INCH","PANASONIC",999.99,"TX-L37G10B",0.00,"CB"
0871332,"LCD TV <32INCH","TOSHIBA",349.99,"22DV616DB",123.00,"IN"
0871349,"LCD TV <32INCH","TOSHIBA",229.99,"19AV615DB",86.40,"IN"
0871356,"LCD TV <32INCH","TOSHIBA",299.99,"22AV615DB",111.60,"IN"
0871363,"LCD TV <32INCH","TOSHIBA",379.99,"26AV615DB",144.00,"IN"
0871370,"LCD TV 32INCH","TOSHIBA",499.99,"32AV635DB",190.17,"IN"
0871387,"LCD TV <32INCH","TOSHIBA",249.99,"19AV615DB",97.19,"IN"
0871394,"LCD TV <32INCH","TOSHIBA",299.99,"22AV615DB",114.10,"IN"
0871404,"LCD TV <32INCH","TOSHIBA",429.99,"26AV615DB",160.59,"IN"
0871411,"LCD TV 32INCH","TOSHIBA",499.99,"32AV635DB",190.17,"IN"
0871428,"LCD TV 32INCH","SONY",829.99,"KDL32W5500U",0.00,"CB"
0871435,"LCD TV 32INCH","PANASONIC",749.99,"TX-L32G10B",0.00,"CB"
0871442,"LCD/PLASMA TV 33-46INCH","SONY",899.99,"KDL40S5500U",0.00,"CB"
0871507,"LCD TV <32INCH","PANASONIC",499.99,"TXL26X10",0.00,"CB"
0871514,"LCD/PLASMA TV 33-46INCH","SAMSUNG",679.99,"LE37B550A5WXX",0.00,"CB"
0871521,"LCD TV <32INCH","SONY",479.99,"KDL-22S5500U",0.00,"CB"
0871552,"LCD TV <32INCH","PANASONIC",479.99,"TXL26X10",0.00,"CB"
0871569,"LCD TV 32INCH","SAMSUNG",899.99,"UE32B6000",0.00,"CB"
0871583,"LCD TV/DVD COMBI <32INCH","TOSHIBA",279.99,"19DV615DVDB",105.00,"IN"
0871590,"LCD TV <32INCH","SONY",399.99,"KDL22EX302BU",0.00,"CB"
0871617,"LCD TV <32INCH","SONY",479.99,"KDL26EX302U",0.00,"CB"
0871631,"LCD TV 32INCH","SAMSUNG",699.99,"LE32C650",0.00,"CB"
0871662,"LCD TV 32INCH","SAMSUNG",749.99,"UE32C5100",0.00,"CB"
0871734,"LCD TV <32INCH","PANASONIC",449.99,"TX-L26X20B",0.00,"CB"
0871741,"LCD TV 32INCH","PANASONIC",699.99,"TX-L32S20B",0.00,"CB"
0871868,"LCD TV 32INCH","TOSHIBA",549.99,"32RV",204.00,"IN"
0871882,"LCD TV/DVD COMBI <32INCH","TOSHIBA",279.99,"19DV713B",105.00,"IN"
4980009,"LCD/PLASMA TV 33-46INCH","PANASONIC",1149.99,"TX-P46S10B",0.00,"CB"
4980016,"LCD/PLASMA TV 33-46INCH","PANASONIC",1079.95,"TX-P46G10B",0.00,"CB"
4980023,"LCD/PLASMA TV 33-46INCH","PANASONIC",1149.99,"TX-P42G15B",0.00,"CB"
4980030,"LCD/PLASMA TV 33-46INCH","PANASONIC",1348.00,"TX-P46G15B",0.00,"CB"
4980085,"LCD/PLASMA TV 47INCH+","SAMSUNG",2499.99,"PS58B680T6WXXU",0.00,"CB"
4980092,"LCD/PLASMA TV 47INCH+","SAMSUNG",2499.99,"PS63B680T6WXXU",0.00,"CB"
4980140,"LCD/PLASMA TV 33-46INCH","TOSHIBA",2819.99,"46SV685DB",1069.80,"IN"
4980157,"LCD/PLASMA TV 47INCH+","TOSHIBA",3849.99,"55SV685DB",1497.60,"IN"
4980164,"LCD/PLASMA TV 33-46INCH","SAMSUNG",1299.99,"UE40B6000",0.00,"CB"
4980171,"LCD/PLASMA TV 33-46INCH","SAMSUNG",1599.99,"UE46B6000",0.00,"CB"
4980205,"LCD/PLASMA TV 33-46INCH","SONY",1099.99,"40WE5BU",0.00,"CB"
4980212,"LCD/PLASMA TV 33-46INCH","TOSHIBA",799.99,"42XV635DB",346.80,"IN"
4980229,"LCD/PLASMA TV 33-46INCH","TOSHIBA",949.99,"46XV635DB",428.40,"IN"
4980236,"LCD/PLASMA TV 33-46INCH","TOSHIBA",999.99,"42ZV635DB",386.40,"IN"
4980243,"LCD/PLASMA TV 33-46INCH","TOSHIBA",1099.99,"47ZV635DB",469.20,"IN"
4980250,"LCD/PLASMA TV 47INCH+","TOSHIBA",1749.99,"55ZV635DB",830.40,"IN"
4980267,"LCD/PLASMA TV 33-46INCH","SAMSUNG",799.99,"LE40B541",0.00,"CB"
4980573,"LCD/PLASMA TV 47INCH+","SAMSUNG",2599.99,"UE55C6530",0.00,"CB"
4980580,"LCD/PLASMA TV 33-46INCH","SAMSUNG",1749.99,"UE46C6530UKXXU",0.00,"CB"
4980597,"LCD/PLASMA TV 33-46INCH","SAMSUNG",1399.99,"UE40C6530UKXXU",0.00,"CB"
4980607,"LCD/PLASMA TV 33-46INCH","SAMSUNG",1399.99,"UE40C6510UKXXU",0.00,"CB"
4980614,"LCD/PLASMA TV 33-46INCH","SAMSUNG",1399.99,"UE46C5800QKXXU",0.00,"CB"
4980621,"LCD/PLASMA TV 33-46INCH","SAMSUNG",1099.99,"UE40C5800QKXXU",0.00,"CB"
4980638,"LCD/PLASMA TV 47INCH+","SAMSUNG",2999.99,"LE60C650L1KXXU",0.00,"CB"
4980645,"LCD/PLASMA TV 33-46INCH","SAMSUNG",999.99,"LE46C580J1KXXU",0.00,"CB"
4980652,"LCD/PLASMA TV 33-46INCH","SAMSUNG",799.99,"LE40C580J1KXXU",0.00,"CB"
4980669,"LCD/PLASMA TV 33-46INCH","SAMSUNG",999.99,"LE46C550",0.00,"CB"
4980676,"LCD/PLASMA TV 33-46INCH","SAMSUNG",799.99,"LE40C550",0.00,"CB"
4980683,"LCD/PLASMA TV 33-46INCH","SAMSUNG",899.99,"LE46C530F1WXXU",0.00,"CB"
4980690,"LCD/PLASMA TV 33-46INCH","SAMSUNG",699.99,"LE40C530F1WXXU",0.00,"CB"
4980700,"LCD/PLASMA TV 47INCH+","SAMSUNG",2299.99,"PS58C6500TKXXU",0.00,"CB"
4980717,"LCD/PLASMA TV 47INCH+","SAMSUNG",1399.99,"PS50C6500TKXXU",0.00,"CB"
4980724,"LCD/PLASMA TV 47INCH+","SAMSUNG",999.99,"PS50C580",0.00,"CB"
4980731,"LCD/PLASMA TV 47INCH+","SAMSUNG",949.99,"PS50C550G1WXXU",0.00,"CB"
4980748,"LCD/PLASMA TV 33-46INCH","PANASONIC",1049.99,"TX-P46S20B",0.00,"CB"
4980755,"LCD/PLASMA TV 33-46INCH","PANASONIC",1349.99,"TX-P46G20B",0.00,"CB"
4980762,"LCD/PLASMA TV 33-46INCH","PANASONIC",1449.99,"TXP42V20B",0.00,"CB"
4980779,"LCD/PLASMA TV 47INCH+","PANASONIC",1749.99,"TXP50V20B",0.00,"CB"
4980786,"LCD/PLASMA TV 33-46INCH","PANASONIC",1299.99,"TX-L42D25B",0.00,"CB"
4980858,"LCD/PLASMA TV 33-46INCH","SONY",1399.99,"KDL46EX703U",0.00,"CB"
4980865,"LCD/PLASMA TV 47INCH+","SONY",1699.99,"KDL52EX703U",0.00,"CB"
4980872,"LCD/PLASMA TV 47INCH+","SONY",2799.99,"KDL60EX703U",0.00,"CB"
4980913,"LCD/PLASMA TV 47INCH+","PANASONIC",2499.99,"TX-P55VT30B",0.00,"CB"
4980920,"LCD/PLASMA TV 47INCH+","PANASONIC",1049.99,"TX-P50UT30B",0.00,"CB"
4980937,"LCD/PLASMA TV 47INCH+","PANASONIC",799.99,"TX-P50S30B",0.00,"CB"
4980944,"LCD/PLASMA TV 47INCH+","SAMSUNG",1299.99,"PS59D550",0.00,"CB"
4980951,"LCD/PLASMA TV 47INCH+","SAMSUNG",1099.99,"PS51D6900",0.00,"CB"
4980975,"LCD/PLASMA TV 47INCH+","SONY",2000.00,"KDL55EX723BU",0.00,"CB"
4990006,"LCD/PLASMA TV 33-46INCH","PANASONIC",989.00,"TX-L37G15B",0.00,"CB"
4990013,"LCD TV <32INCH","PANASONIC",279.99,"TX-L19X10BW",0.00,"CB"
4990020,"LCD/PLASMA TV 33-46INCH","TECHWOOD (VESTEL)",499.99,"42' TECHWOOD",0.00,"IN"
4990037,"LCD TV/DVD COMBI <32INCH","TOSHIBA",429.99,"26DV615DB",168.00,"IN"
4990044,"LCD/PLASMA TV 33-46INCH","TOSHIBA",819.99,"37XV635DB",312.60,"IN"
4990123,"LCD TV 32INCH","SAMSUNG",899.99,"UE32B6000VWXXU",0.00,"CB"
4990130,"LCD/PLASMA TV 33-46INCH","SAMSUNG",1199.99,"UE3786000WWXXU",0.00,"CB"
4990185,"LCD TV <32INCH","SAMSUNG",369.99,"LE22B541A4WXXU",0.00,"CB"
4990192,"LCD TV <32INCH","SAMSUNG",249.99,"LE22B541A4WXXU",0.00,"CB"
4990202,"LCD TV 32INCH","SAMSUNG",569.99,"LE32B541P7WXXU",0.00,"CB"
4990240,"LCD/PLASMA TV 33-46INCH","SAMSUNG",1199.99,"UE37C6530UKXXU",0.00,"CB"
4990257,"LCD TV 32INCH","SAMSUNG",1049.99,"UE32C6530UKXXU",0.00,"CB"
4990295,"LCD TV 32INCH","SAMSUNG",1049.99,"UE32C6510UKXXU",0.00,"CB"
4990453,"LCD/PLASMA TV 33-46INCH","SAMSUNG",899.99,"UE37C5800QKXXU",0.00,"CB"
4990477,"LCD TV 32INCH","SAMSUNG",799.99,"UE32C5800QKXXU",0.00,"CB"
4990484,"LCD TV <32INCH","SAMSUNG",499.99,"UE26C4010",0.00,"CB"
4990525,"LCD TV 32INCH","PANASONIC",649.37,"TXL32X10BA",0.00,"CB"
4990893,"LCD TV <32INCH","SAMSUNG",349.99,"UE22C4010PWXXU",0.00,"CB"
4990903,"LCD TV 32INCH","SAMSUNG",649.99,"UE32C4000PWXXU",0.00,"CB"
4990910,"LCD TV <32INCH","SAMSUNG",499.99,"UE26C4000PWXXU",0.00,"CB"
4990927,"LCD/PLASMA TV 33-46INCH","SAMSUNG",799.99,"LE37C650L1KXXU",0.00,"CB"
4990934,"LCD TV 32INCH","SAMSUNG",699.99,"LE32C650L1KXXU",0.00,"CB"
4990941,"LCD/PLASMA TV 33-46INCH","SAMSUNG",699.99,"LE37C580J1KXXU",0.00,"CB"
4990958,"LCD TV 32INCH","SAMSUNG",599.99,"LE32C580J1KXXU",0.00,"CB"
4990965,"LCD/PLASMA TV 33-46INCH","SAMSUNG",699.99,"LE37C550",0.00,"CB"
4990972,"LCD TV 32INCH","SAMSUNG",599.99,"LE32C550",0.00,"CB"
4990989,"LCD/PLASMA TV 33-46INCH","SAMSUNG",599.99,"LE37C530F1WXXU",0.00,"CB"
4990996,"LCD TV <32INCH","SAMSUNG",299.99,"LE22C451",0.00,"CB"
4991005,"LCD TV <32INCH","SAMSUNG",239.99,"LE19C451",0.00,"CB"
4991012,"LCD TV <32INCH","SAMSUNG",429.99,"LE26C450E1WXXU",0.00,"CB"
4991029,"LCD TV <32INCH","SAMSUNG",299.99,"LE22C450E1WXXU",0.00,"CB"
4991036,"LCD TV <32INCH","SAMSUNG",249.99,"LE19C450E1WXXU",0.00,"CB"
4991043,"LCD TV <32INCH","SONY",249.99,"KDL19BX200/B",0.00,"CB"
4991050,"LCD TV <32INCH","SONY",249.99,"KDL19BX200/W",0.00,"CB"
4991067,"LCD TV <32INCH","SONY",299.99,"KDL22BX200/B",0.00,"CB"
4991074,"LCD TV/DVD COMBI <32INCH","SONY",329.99,"KDL22BX20D",0.00,"CB"
4991081,"LCD TV <32INCH","PANASONIC",319.99,"TX-L19C20BW",0.00,"CB"
4991098,"LCD TV <32INCH","PANASONIC",399.99,"TXL22X20B",0.00,"CB"
4991108,"LCD TV 32INCH","PANASONIC",949.99,"TX-L32G20B",0.00,"CB"
4991115,"LCD/PLASMA TV 33-46INCH","PANASONIC",1049.99,"TX-L37G20B",0.00,"CB"
4991122,"LCD TV 32INCH","PANASONIC",1099.99,"TX-L32D25B",0.00,"CB"
4991139,"LCD/PLASMA TV 33-46INCH","PANASONIC",1199.99,"TX-L37D25B",0.00,"CB"
4991146,"LCD TV <32INCH","PANASONIC",469.99,"TX-L19D28BW",0.00,"CB"
4991153,"LCD TV <32INCH","PANASONIC",469.99,"TX-L19D28BP",0.00,"CB"
4991160,"LCD TV <32INCH","PANASONIC",549.99,"TX-L22D28BW",0.00,"CB"
4991177,"LCD TV <32INCH","PANASONIC",549.99,"TX-L22D28BP",0.00,"CB"
4991184,"LCD TV <32INCH","PANASONIC",1149.99,"TX-L32D28BW",0.00,"CB"
4991191,"LCD TV 32INCH","PANASONIC",1149.99,"TX-L32D28BP",0.00,"CB"
4991201,"LCD TV 32INCH","PANASONIC",1149.99,"TX-L32D28BS",0.00,"CB"
4991218,"LCD/PLASMA TV 33-46INCH","PANASONIC",1249.99,"TX-L37D28BS",0.00,"CB"
4991225,"LCD/PLASMA TV 33-46INCH","PANASONIC",1349.99,"TX-L37V20B",0.00,"CB"
4991335,"LCD TV 32INCH","SAMSUNG",329.99,"LE32B551",0.00,"CB"
4991407,"LCD TV 32INCH","SONY",749.99,"KDL32EX43BU",0.00,"CB"
4991421,"LCD/PLASMA TV 33-46INCH","SONY",899.99,"KDL40EX43BU",0.00,"CB"
4991445,"LCD TV 32INCH","SONY",899.99,"KD32EX703U",0.00,"CB"
4991452,"LCD/PLASMA TV 33-46INCH","SONY",1099.99,"KDL40EX703U",0.00,"CB"
4991586,"LCD TV <32INCH","SAMSUNG",229.99,"UE19C4000",0.00,"CB"
4991610,"LCD TV <32INCH","SAMSUNG",249.99,"UE22C4000",0.00,"CB"
4991658,"LCD TV 32INCH","SONY",599.99,"KDL32EX503U",0.00,"CB"
4991665,"LCD/PLASMA TV 33-46INCH","SAMSUNG",529.99,"LE37C580",0.00,"CB"
4991672,"LCD/PLASMA TV 33-46INCH","PANASONIC",599.99,"TX-L37S20B",0.00,"CB"
4991689,"LCD/PLASMA TV 33-46INCH","SONY",699.99,"KDL37EX503U",0.00,"CB"
4991696,"LCD TV <32INCH","SONY",329.99,"KDL26EX302U",0.00,"CB"
4991744,"LCD TV 32INCH","PANASONIC",479.99,"TX-L32E3B",0.00,"CB"
4991751,"LCD/PLASMA TV 33-46INCH","PANASONIC",799.99,"TX-L42E30B",0.00,"CB"
4991768,"LCD TV 32INCH","SAMSUNG",499.99,"UE32D5520",0.00,"CB"
4991775,"LCD TV 32INCH","SAMSUNG",629.99,"UE32D6100",0.00,"CB"
4991782,"LCD/PLASMA TV 33-46INCH","SAMSUNG",849.99,"UE46D5520",0.00,"CB"
4991799,"LCD/PLASMA TV 33-46INCH","SAMSUNG",999.99,"UE46D6100",0.00,"CB"
4991809,"LCD/PLASMA TV 47INCH+","SAMSUNG",1499.99,"UE55D6100SKXXU",0.00,"CB"
4991816,"LCD/PLASMA TV 33-46INCH","SAMSUNG",799.99,"UE540D6100SKXXU",0.00,"CB"
4991823,"LCD TV 32INCH","SONY",629.99,"KDL32EX723BU",0.00,"CB"
4991830,"LCD/PLASMA TV 33-46INCH","SONY",979.99,"KDL40EX723BU",0.00,"CB"
4991847,"LCD/PLASMA TV 47INCH+","SONY",1999.99,"KDL55EX723BU",0.00,"CB"
4991854,"LCD TV 32INCH","TOSHIBA",379.99,"32HL833",162.00,"IN"
4991861,"LCD/PLASMA TV 33-46INCH","SONY",999.99,"46EX524BU",0.00,"CB"
4991885,"LCD/PLASMA TV 33-46INCH","SONY",1000.00,"46EX524BU",0.00,"CB"
5290963,"LCD TV <32INCH","SAMSUNG",269.99,"LE19R86BDX/XEU",0.00,"CB"
5290994,"LCD TV <32INCH","SAMSUNG",299.99,"LE19R86WDX/XEU",0.00,"CB"
5291120,"LCD TV <32INCH","SAMSUNG",349.99,"LE22S86BDX",0.00,"CB"
5291553,"LCD TV 32INCH","HITACHI",369.00,"32LD8D20",163.76,"IN"
5292246,"LCD TV <32INCH","SONY",399.99,"KDL26P3020U",0.00,"CB"
5292686,"LCD TV/DVD COMBI <32INCH","WHARFEDALE",224.99,"LY19T1CWW",0.00,"IN"
5292727,"LCD TV/DVD COMBI <32INCH","WHARFEDALE",244.69,"LY22T1CBW",0.00,"IN"
5292734,"LCD TV/DVD COMBI <32INCH","WHARFEDALE",215.29,"LY19T1CBW",0.00,"IN"
5292772,"LCD TV <32INCH","WHARFEDALE",215.29,"LT22TICBW",0.00,"IN"
5292796,"LCD TV/DVD COMBI <32INCH","WHARFEDALE",195.69,"LY15T1CBW",0.00,"IN"
5292837,"LCD TV <32INCH","HITACHI",349.99,"L26H01",142.13,"IN"
5292868,"LCD TV <32INCH","PANASONIC",449.99,"TX26LXD7",0.00,"CB"
5292909,"LCD TV <32INCH","WHARFEDALE",179.99,"LT15T1CBW",0.00,"IN"
5292992,"LCD TV/DVD COMBI <32INCH","WHARFEDALE",264.29,"LY22TICWW",0.00,"IN"
5293070,"LCD TV <32INCH","GRUNDIG",249.99,"GU22B4",63.44,"IN"
5293207,"LCD/PLASMA TV 33-46INCH","BUSH",499.99,"LT37M1C",0.00,"IN"
5293245,"LCD TV <32INCH","SAMSUNG",189.99,"SM932 MW",0.00,"CB"
5293290,"LCD TV 32INCH","JVC",499.00,"32DY8",194.25,"IN"
5293403,"LCD TV <32INCH","ACOUSTIC SOLUTIONS (VESTEL)",179.99,"LCDW2295F",0.00,"IN"
5293520,"LCD/PLASMA TV 33-46INCH","ACOUSTIC SOLUTIONS (VESTEL)",499.99,"LCD42762HDF",0.00,"IN"
5293544,"LCD TV 32INCH","ACOUSTIC SOLUTIONS (VESTEL)",299.99,"LCD32761HDF",0.00,"IN"
5293551,"LCD TV <32INCH","ACOUSTIC SOLUTIONS (VESTEL)",244.99,"LCD26762HDF",0.00,"IN"
5293616,"LCD TV 32INCH","PANASONIC",599.99,"TX-32LXD80",0.00,"CB"
5293623,"LCD TV 32INCH","PANASONIC",388.29,"TX-32LXD8",0.00,"CB"
5293661,"LCD TV <32INCH","SAMSUNG",371.89,"LE26A45",0.00,"CB"
5293678,"LCD TV 32INCH","SAMSUNG",391.49,"32IN LE32A45",0.00,"CB"
5293771,"LCD TV <32INCH","PANASONIC",499.99,"TX-L26X10B",0.00,"CB"
5293788,"LCD TV <32INCH","SONY",365.89,"KDL26L4000",0.00,"CB"
5293795,"LCD TV 32INCH","SONY",440.39,"KDL32L4000",0.00,"CB"
5293805,"LCD TV 32INCH","SONY",489.39,"KDL32V4000",0.00,"CB"
5293812,"LCD TV 32INCH","PANASONIC",499.99,"TX-32X10BA",0.00,"CB"
5293829,"LCD TV 32INCH","PANASONIC",879.99,"TX-L32G10B",0.00,"CB"
5293843,"LCD TV <32INCH","SONY",469.79,"KDL26V4000",0.00,"CB"
5293850,"LCD TV <32INCH","SAMSUNG",249.99,"LE19B450C4WXXU",0.00,"CB"
5293881,"LCD TV <32INCH","SAMSUNG",299.89,"LE22B450C4WXXU",0.00,"CB"
5293898,"LCD TV <32INCH","SAMSUNG",349.00,"LE26B450C4XXU",0.00,"CB"
5293915,"LCD TV 32INCH","SAMSUNG",369.00,"LE32B450C4WXXU",0.00,"CB"
5293922,"LCD/PLASMA TV 33-46INCH","HITACHI",499.99,"37LD8D20",219.28,"IN"
5293939,"LCD TV 32INCH","SAMSUNG",429.99,"LE32B550A5WQXU",0.00,"CB"
5293946,"LCD TV <32INCH","SAMSUNG",195.79,"LS19PMDSFV",0.00,"CB"
5293953,"LCD/PLASMA TV 33-46INCH","SAMSUNG",799.99,"LE37B550AWQXU",0.00,"CB"
5293960,"LCD/PLASMA TV 33-46INCH","SAMSUNG",899.99,"LE37B650T6WXXU",0.00,"CB"
5293977,"LCD TV <32INCH","TOSHIBA",371.89,"26AV505",147.37,"IN"
5293991,"LCD/PLASMA TV 33-46INCH","ACOUSTIC SOLUTIONS (VESTEL)",440.39,"LCD37761F1080P",0.00,"IN"
5294000,"LCD/PLASMA TV 33-46INCH","ACOUSTIC SOLUTIONS (VESTEL)",391.49,"LCD37762HDF",0.00,"IN"
5294017,"LCD TV <32INCH","ACOUSTIC SOLUTIONS (VESTEL)",185.00,"LCDW22DVD95F",0.00,"IN"
5294024,"LCD TV <32INCH","ACOUSTIC SOLUTIONS (VESTEL)",176.19,"LCDWDVD19FB",0.00,"IN"
5294048,"LCD/PLASMA TV 33-46INCH","SAMSUNG",729.99,"LE40B550A5WQXU",0.00,"CB"
5294055,"LCD/PLASMA TV 33-46INCH","ACOUSTIC SOLUTIONS (VESTEL)",469.79,"LCD42761F1080P",0.00,"IN"
5294062,"LCD TV <32INCH","BUSH",195.69,"LT22M1CW",0.00,"IN"
5294079,"LCD TV <32INCH","BUSH",273.99,"LT26M1C",0.00,"IN"
5294086,"LCD TV <32INCH","WHARFEDALE",293.59,"LT26K1CB",0.00,"IN"
5294093,"LCD TV 32INCH","WHARFEDALE",342.49,"LT32K1CB",0.00,"IN"
5294103,"LCD TV/DVD COMBI <32INCH","BUSH",195.69,"LY1911WCW",0.00,"IN"
5294110,"LCD TV/DVD COMBI <32INCH","BUSH",156.59,"LY1511WCW",0.00,"IN"
5294127,"LCD TV <32INCH","BUSH",166.39,"LT19M1CW",0.00,"IN"
5294134,"LCD TV 32INCH","BUSH",322.99,"LT32M1CA",0.00,"IN"
5294165,"LCD/PLASMA TV 33-46INCH","SAMSUNG",879.99,"LE40B650T2WXXU",0.00,"CB"
5294172,"LCD TV <32INCH","SONY",499.99,"KDL26S5500U",0.00,"CB"
5294213,"LCD TV <32INCH","SAMSUNG",244.69,"LS22TDDSUV/EDC",0.00,"CB"
5294237,"LCD/PLASMA TV 33-46INCH","WHARFEDALE",599.99,"LTF37K1CB",0.00,"IN"
5294244,"LCD/PLASMA TV 33-46INCH","HITACHI",587.19,"42VP01",254.75,"IN"
5294251,"LCD/PLASMA TV 33-46INCH","SONY",880.79,"KDL40L4000",0.00,"CB"
5294299,"LCD TV/DVD COMBI <32INCH","ACOUSTIC SOLUTIONS (VESTEL)",195.69,"LCDWDVD19FW",0.00,"IN"
5294323,"LCD TV/DVD COMBI <32INCH","ACOUSTIC SOLUTIONS (VESTEL)",195.69,"LCDWDVD19FW",0.00,"IN"
5294330,"LCD TV/DVD COMBI <32INCH","BUSH",224.99,"LY2211WCW",0.00,"IN"
5294354,"LCD TV <32INCH","SONY",449.99,"KDL23B4050U",0.00,"CB"
5294361,"LCD TV <32INCH","SAMSUNG",342.49,"T240HD",0.00,"CB"
5294457,"LCD TV <32INCH","TOSHIBA",244.69,"19AV505DB",95.59,"IN"
5294471,"LCD TV <32INCH","HITACHI",199.99,"L19HP03",85.35,"IN"
5294495,"LCD TV/DVD COMBI <32INCH","HITACHI",224.99,"L19DP03U",86.26,"IN"
5294505,"LCD TV <32INCH","SAMSUNG",219.99,"SM933HD",0.00,"CB"
5294512,"LCD/PLASMA TV 33-46INCH","EVOTEL",399.99,"LCD0883F108Q",0.00,"IN"
5294529,"LCD TV 32INCH","HITACHI",371.89,"32LD30U",133.20,"IN"
5294574,"LCD TV <32INCH","SONY",391.49,"KDL22S5500U",0.00,"CB"
5294608,"LCD TV <32INCH","HITACHI",199.99,"L19HP04U",83.07,"IN"
5294615,"LCD/PLASMA TV 33-46INCH","GRUNDIG",549.99,"GU37HDUSB",169.88,"IN"
5294639,"LCD/PLASMA TV 33-46INCH","GRUNDIG",579.99,"GU37WDVD10",178.14,"IN"
5294646,"LCD TV/DVD COMBI <32INCH","HITACHI",219.99,"L19DP04U",63.19,"IN"
5294653,"LCD TV 32INCH","TOSHIBA",391.49,"32AV554DB",163.30,"IN"
5294718,"LCD TV <32INCH","HITACHI",199.99,"L22HP04U",71.19,"IN"
5294756,"LCD/PLASMA TV 33-46INCH","SAMSUNG",684.99,"LE40A558P3FXXU",0.00,"CB"
5294794,"LCD TV/DVD COMBI <32INCH","HITACHI",279.99,"L22DP03",102.94,"IN"
5294828,"LCD TV 32INCH","BUSH (VESTEL)",369.99,"LCD32F1080P",0.00,"IN"
5294835,"LCD TV <32INCH","HITACHI",349.99,"L26HP03",130.09,"IN"
5294866,"LCD/PLASMA TV 33-46INCH","BUSH",489.39,"LT42M1CF",0.00,"IN"
5294880,"LCD TV <32INCH","ACOUSTIC SOLUTIONS (VESTEL)",214.99,"LCDW22DVD95FW",0.00,"IN"
5294897,"LCD TV <32INCH","SAMSUNG",273.99,"LE22A457C1DXXU",0.00,"CB"
5294921,"LCD TV 32INCH","SONY",849.99,"KDL32W5500U",0.00,"CB"
5294938,"LCD TV 32INCH","SONY",429.99,"KDL32S5500U",0.00,"CB"
5294945,"LCD/PLASMA TV 33-46INCH","SONY",849.99,"KDL37S5500U",0.00,"CB"
5294952,"LCD/PLASMA TV 33-46INCH","SONY",949.99,"KDL40S5500U",0.00,"CB"
5294969,"LCD/PLASMA TV 33-46INCH","SONY",949.99,"KDL40V5500U",0.00,"CB"
5294976,"LCD/PLASMA TV 33-46INCH","SONY",1049.99,"KDL40W5500U",0.00,"CB"
5294990,"LCD TV/DVD COMBI <32INCH","TOSHIBA",269.99,"19DV615DB",105.00,"IN"
5295023,"LCD TV 32INCH","TOSHIBA",399.99,"32AV615DB",150.60,"IN"
5295030,"LCD TV 32INCH","TOSHIBA",479.99,"32AV635DB",190.17,"IN"
5295047,"LCD TV 32INCH","TOSHIBA",449.99,"32RV635DB",169.80,"IN"
5295054,"LCD TV 32INCH","BUSH (VESTEL)",499.99,"LCD32T2HD",0.00,"IN"
5295061,"LCD/PLASMA TV 33-46INCH","BUSH (VESTEL)",599.99,"LCD40T2FHD",0.00,"IN"
5295078,"LCD/PLASMA TV 33-46INCH","TOSHIBA",549.00,"37AV615DB",232.43,"IN"
5295085,"LCD/PLASMA TV 33-46INCH","TOSHIBA",649.99,"37RV635DB",245.11,"IN"
5295092,"LCD/PLASMA TV 33-46INCH","TOSHIBA",544.99,"37RV635DB",226.80,"IN"
5295102,"LCD/PLASMA TV 33-46INCH","TOSHIBA",579.00,"42AV635DB",264.60,"IN"
5295119,"LCD/PLASMA TV 33-46INCH","TOSHIBA",699.97,"42RV635DB",304.20,"IN"
5295126,"LCD/PLASMA TV 33-46INCH","PANASONIC",699.99,"TX-L37S10B",0.00,"CB"
5295133,"LCD TV/DVD COMBI <32INCH","SAMSUNG",299.99,"LE22B470C9",0.00,"CB"
5295140,"LCD/PLASMA TV 33-46INCH","SONY",499.99,"37W5710",0.00,"CB"
5295157,"LCD TV/DVD COMBI <32INCH","BUSH",299.99,"S624D",0.00,"IN"
5295188,"LCD TV <32INCH","BUSH",199.99,"A319",0.00,"IN"
5295195,"LCD TV/DVD COMBI <32INCH","BUSH",219.99,"A319D",0.00,"IN"
5295205,"LCD TV <32INCH","BUSH",199.99,"A322",0.00,"IN"
5295212,"LCD TV/DVD COMBI <32INCH","BUSH",249.99,"A322D",0.00,"IN"
5295229,"LCD TV <32INCH","BUSH",229.99,"S319",0.00,"IN"
5295236,"LCD TV/DVD COMBI <32INCH","BUSH",249.99,"S319D",0.00,"IN"
5295243,"LCD TV <32INCH","BUSH",249.99,"S322",0.00,"IN"
5295250,"LCD TV/DVD COMBI <32INCH","BUSH",279.99,"S322D",0.00,"IN"
5295267,"LCD/PLASMA TV 33-46INCH","BUSH",569.99,"A642F",0.00,"IN"
5295274,"LCD/PLASMA TV 33-46INCH","BUSH",699.99,"S642F",0.00,"IN"
5295281,"LCD TV <32INCH","BUSH",299.99,"A626",0.00,"IN"
5295298,"LCD TV 32INCH","BUSH",299.99,"A632",0.00,"IN"
5295308,"LCD TV <32INCH","BUSH",349.99,"S626",0.00,"IN"
5295315,"LCD TV/DVD COMBI <32INCH","BUSH",369.99,"S626D",0.00,"IN"
5295322,"LCD TV/DVD COMBI 32INCH+","BUSH",429.99,"S632D",0.00,"IN"
5295339,"LCD TV 32INCH","BUSH",449.99,"S632F",0.00,"IN"
5295346,"LCD/PLASMA TV 33-46INCH","BUSH",499.99,"A637F",0.00,"IN"
5295353,"LCD TV <32INCH","BUSH (VESTEL)",229.99,"LCD22880F1080P",0.00,"IN"
5295360,"LCD TV <32INCH","ALBA (VESTEL)",299.99,"LCD26ADVD",0.00,"IN"
5295377,"LCD TV/DVD COMBI <32INCH","TOSHIBA",329.89,"22DV615DB",123.00,"IN"
5295425,"LCD TV/DVD COMBI <32INCH","ALBA (VESTEL)",199.99,"LCD19ADVDP",0.00,"IN"
5295432,"LCD TV/DVD COMBI <32INCH","ALBA (VESTEL)",199.99,"LCD19ADVDW",0.00,"IN"
5295456,"LCD TV/DVD COMBI <32INCH","ALBA (VESTEL)",219.99,"LCD22ADVD",0.00,"IN"
5295463,"LCD TV/DVD COMBI <32INCH","ALBA (VESTEL)",199.99,"LCD22ADVDW",0.00,"IN"
5295470,"LCD TV <32INCH","ALBA (VESTEL)",269.99,"LCD26880HDF",0.00,"IN"
5295487,"LCD TV 32INCH","ALBA (VESTEL)",289.99,"LCD32880HDF",0.00,"IN"
5295494,"LCD/PLASMA TV 33-46INCH","ALBA (VESTEL)",529.99,"LCD37880F1080P",0.00,"IN"
5295504,"LCD/PLASMA TV 33-46INCH","ALBA (VESTEL)",599.99,"LCD42880F1080P",0.00,"IN"
5295511,"LCD/PLASMA TV 33-46INCH","HITACHI",599.99,"L42LDF30",255.70,"IN"
5295528,"LCD/PLASMA TV 33-46INCH","BUSH",679.99,"S642F1",0.00,"IN"
5295535,"LCD/PLASMA TV 33-46INCH","ALBA (VESTEL)",449.99,"LCD40781F1080P",0.00,"IN"
5295542,"LCD TV <32INCH","BUSH",229.99,"L322LED",0.00,"IN"
5295559,"LCD TV <32INCH","BUSH",199.99,"L319LED",0.00,"IN"
5295566,"LCD TV 32INCH","PANASONIC",599.99,"TX 32",0.00,"CB"
5295607,"LCD TV 32INCH","SAMSUNG",499.99,"LE32B530",0.00,"CB"
5295614,"LCD TV <32INCH","ALBA",229.99,"L22P1",0.00,"IN"
5295621,"LCD TV <32INCH","ALBA",249.99,"L26M1",0.00,"IN"
5295638,"LCD TV 32INCH","ALBA",299.99,"L32M1",0.00,"IN"
5295645,"LCD/PLASMA TV 33-46INCH","ALBA",549.99,"L42M1",0.00,"IN"
5295669,"LCD TV <32INCH","SAMSUNG",349.99,"LE22B350",0.00,"CB"
5295700,"LCD/PLASMA TV 33-46INCH","SAMSUNG",649.99,"LE40B530P7WXXU",0.00,"CB"
5295731,"LCD TV/DVD COMBI <32INCH","HITACHI",249.99,"L22DP04U",73.51,"IN"
5295748,"LCD TV <32INCH","BUSH (VESTEL)",249.99,"LCD24F1080P",0.00,"IN"
5295755,"LCD TV/DVD COMBI 32INCH+","BUSH",349.99,"S632D",0.00,"IN"
5295762,"LCD TV <32INCH","HITACHI",329.99,"L26HP04",122.44,"IN"
5295803,"LCD TV/DVD COMBI <32INCH","HITACHI",329.99,"L26DP04U",113.10,"IN"
5295810,"LCD TV 32INCH","HITACHI",369.99,"L32HP04",126.44,"IN"
5295841,"LCD TV 32INCH","HITACHI",429.99,"L32VC04U",149.49,"IN"
5295858,"LCD TV 32INCH","HITACHI",449.99,"L32VK05U",172.64,"IN"
5295865,"LCD/PLASMA TV 33-46INCH","HITACHI",549.99,"L37VC04U",208.64,"IN"
5295872,"LCD/PLASMA TV 33-46INCH","BUSH (VESTEL)",649.99,"LCD42F1080P100HZ",0.00,"IN"
5295889,"LCD/PLASMA TV 33-46INCH","HITACHI",599.99,"L42VC04U",215.83,"IN"
5295896,"LCD/PLASMA TV 33-46INCH","HITACHI",679.99,"L42VK05U",268.08,"IN"
5295913,"LCD/PLASMA TV 33-46INCH","SAMSUNG",1339.99,"UE40B6000",0.00,"CB"
5296008,"LCD/PLASMA TV 33-46INCH","BUSH",300.00,"LCD40FHDA8",0.00,"IN"
5296053,"LCD TV/DVD COMBI <32INCH","HITACHI",199.99,"L19DG07U",70.40,"IN"
5296060,"LCD TV 32INCH","BUSH",449.99,"LED32K1",0.00,"IN"
5296077,"LCD TV/DVD COMBI 32INCH+","ALBA (VESTEL)",349.99,"LCD32ADVD",0.00,"IN"
5296084,"LCD/PLASMA TV 33-46INCH","BUSH (VESTEL)",479.99,"LCD40883F1080P",0.00,"IN"
5296091,"LCD/PLASMA TV 33-46INCH","BUSH",899.99,"LED40T3",0.00,"IN"
5296101,"LCD TV/DVD COMBI <32INCH","HITACHI",229.99,"L22DG07",84.98,"IN"
5296118,"LCD TV 32INCH","SONY",599.99,"KDL32EX403U",0.00,"CB"
5296125,"LCD/PLASMA TV 33-46INCH","SONY",699.99,"KDL37EX403U",0.00,"CB"
5296132,"LCD/PLASMA TV 33-46INCH","SONY",769.99,"KDL40EX403U",0.00,"CB"
5296149,"LCD TV/DVD COMBI <32INCH","BUSH (VESTEL)",199.99,"LED22916DVDFHD",0.00,"IN"
5296156,"LCD TV 32INCH","SONY",699.99,"KDL32EX503U",0.00,"CB"
5296163,"LCD/PLASMA TV 33-46INCH","SONY",799.99,"KDL37EX503U",0.00,"CB"
5296170,"LCD/PLASMA TV 33-46INCH","SONY",899.99,"KDL40EX503U",0.00,"CB"
5296187,"LCD/PLASMA TV 33-46INCH","PANASONIC",799.99,"TXL42510",0.00,"CB"
5296194,"LCD TV <32INCH","SAMSUNG",229.99,"LE19C350",0.00,"CB"
5296204,"LCD TV <32INCH","SAMSUNG",279.99,"LE22C350E",0.00,"CB"
5296211,"LCD TV <32INCH","SAMSUNG",399.99,"LE26C350E",0.00,"CB"
5296228,"LCD TV 32INCH","SAMSUNG",449.99,"LE32C450E",0.00,"CB"
5296235,"LCD TV 32INCH","SAMSUNG",499.99,"LE32C530",0.00,"CB"
5296242,"LCD/PLASMA TV 33-46INCH","SAMSUNG",449.99,"LE37C530",0.00,"CB"
5296259,"LCD/PLASMA TV 33-46INCH","SAMSUNG",679.99,"LE40C530",0.00,"CB"
5296266,"LCD TV 32INCH","SAMSUNG",599.99,"LE32C580",0.00,"CB"
5296273,"LCD TV <32INCH","SAMSUNG",319.99,"UE19C4000",0.00,"CB"
5296345,"LCD TV 32INCH","PANASONIC",499.99,"TXL32X20B",0.00,"CB"
5296352,"LCD TV 32INCH","SONY",499.99,"KDL32EX401U",0.00,"CB"
5296376,"LCD/PLASMA TV 33-46INCH","SONY",599.99,"KDL37EX401U",0.00,"CB"
5296383,"LCD/PLASMA TV 33-46INCH","SONY",699.99,"KDL40EX401U",0.00,"CB"
5296390,"LCD TV <32INCH","TOSHIBA",149.99,"19BV500B",66.00,"IN"
5296400,"LCD TV <32INCH","TOSHIBA",179.99,"22BV500B",78.00,"IN"
5296417,"LCD TV 32INCH","TOSHIBA",299.99,"32BV500B",132.00,"IN"
5296424,"LCD TV 32INCH","TOSHIBA",349.99,"32BV700B",150.00,"IN"
5296431,"LCD TV <32INCH","PANASONIC",269.99,"TX-L19C20BW",0.00,"CB"
5296448,"LCD TV/DVD COMBI <32INCH","TOSHIBA",329.99,"22DV713B",117.00,"IN"
5296455,"LCD TV <32INCH","BUSH",199.99,"E01LED19USBHD",0.00,"IN"
5296479,"LCD TV <32INCH","BUSH",229.99,"E01LED22USBFHD",0.00,"IN"
5296493,"LCD TV <32INCH","BUSH",179.99,"LT24M3",0.00,"IN"
5296503,"LCD TV <32INCH","BUSH",249.99,"E01LED24USBFHD",0.00,"IN"
5296510,"LCD TV <32INCH","BUSH (VESTEL)",399.99,"LCD26T2HD",0.00,"IN"
5296527,"LCD TV 32INCH","BUSH (VESTEL)",499.99,"LCD32T2FH",0.00,"IN"
5296534,"LCD TV 32INCH","BUSH",599.99,"LED32T3",0.00,"IN"
5296541,"LCD/PLASMA TV 33-46INCH","BUSH (VESTEL)",479.99,"LCD37883F1080P",0.00,"IN"
5296589,"LCD TV 32INCH","SONY",449.99,"KDL32EX301U",0.00,"CB"
5296596,"LCD TV <32INCH","SONY",249.99,"BX200/B",0.00,"CB"
5296606,"LCD TV/DVD COMBI <32INCH","SONY",329.99,"KDLBX20",0.00,"CB"
5296613,"LCD TV <32INCH","SONY",299.99,"KDL-22BX200BU",0.00,"CB"
5296620,"LCD TV 32INCH","HITACHI",499.99,"L32VK06U",159.82,"IN"
5296637,"LCD/PLASMA TV 33-46INCH","HITACHI",699.99,"L42VK06U",263.99,"IN"
5296644,"LCD TV <32INCH","GRUNDIG",199.99,"GU19WDVD10",64.00,"IN"
5296651,"LCD TV <32INCH","GRUNDIG",249.99,"GU22WDVD10",74.36,"IN"
5296668,"LCD TV 32INCH","TOSHIBA",449.99,"32LV713B",173.40,"IN"
5296675,"LCD TV/DVD COMBI <32INCH","BUSH",199.99,"BLCD19F1D",0.00,"IN"
5296682,"LCD TV/DVD COMBI <32INCH","BUSH",199.99,"BLCD19F1D",0.00,"IN"
5296699,"LCD TV/DVD COMBI <32INCH","BUSH",249.99,"BLCD22F1D",0.00,"IN"
5296709,"LCD TV/DVD COMBI <32INCH","BUSH",249.99,"BLCD22F1D",0.00,"IN"
5296747,"LCD TV <32INCH","PANASONIC",319.99,"TX-L19C2B",0.00,"CB"
5296754,"LCD TV <32INCH","PANASONIC",449.99,"TXL26X20B",0.00,"CB"
5296761,"LCD TV 32INCH","PANASONIC",699.99,"TXL32S20",0.00,"CB"
5296778,"LCD TV <32INCH","SAMSUNG",349.99,"UE22C4000",0.00,"CB"
5296785,"LCD TV 32INCH","SAMSUNG",699.99,"UE32C5100",0.00,"CB"
5296792,"LCD TV 32INCH","SAMSUNG",629.99,"LE32C650",0.00,"CB"
5296833,"LCD TV <32INCH","SONY",249.99,"KDL19BX200/W",0.00,"CB"
5296840,"LCD TV/DVD COMBI <32INCH","TOSHIBA",279.99,"19DV713B",105.00,"IN"
5296857,"LCD TV 32INCH","TOSHIBA",549.99,"32RV753B",204.00,"IN"
5296864,"LCD TV 32INCH","EVOTEL",279.99,"ELCD32USBFHD",0.00,"IN"
5296871,"LCD/PLASMA TV 33-46INCH","PANASONIC",699.99,"TX-L42U2",0.00,"CB"
5296888,"LCD TV/DVD COMBI <32INCH","BUSH",199.99,"LY24M3",0.00,"IN"
5296895,"LCD TV <32INCH","HITACHI",299.99,"L22VG07U",75.41,"IN"
5296929,"LCD TV 32INCH","SAMSUNG",549.99,"VE32C4000",0.00,"CB"
5297014,"LCD TV/DVD COMBI <32INCH","BUSH",229.99,"LYF24M4",0.00,"IN"
5297021,"LCD TV 32INCH","HITACHI",499.99,"L32VG08U",173.11,"IN"
5297100,"LCD TV <32INCH","SAMSUNG",429.99,"LE24C4000",0.00,"CB"
5297179,"LCD TV <32INCH","SAMSUNG",229.99,"LE22C3300",0.00,"CB"
5297186,"LCD TV <32INCH","BUSH",160.00,"BLED22FHDL8DVD",0.00,"IN"
5297193,"LCD/PLASMA TV 33-46INCH","TOSHIBA",379.99,"37BV700B",165.00,"IN"
5297210,"LCD TV <32INCH","SAMSUNG",349.99,"LE26C450E",0.00,"CB"
5297227,"LCD TV <32INCH","BUSH (VESTEL)",249.99,"LED26916HD",0.00,"IN"
5297234,"LCD TV 32INCH","BUSH (VESTEL)",399.99,"LED32916HD50HZ",0.00,"IN"
5297258,"LCD/PLASMA TV 33-46INCH","BUSH (VESTEL)",599.99,"LED37916FHD",0.00,"IN"
5297265,"LCD/PLASMA TV 33-46INCH","BUSH (VESTEL)",699.99,"LED40916FHD100HZ",0.00,"IN"
5297272,"LCD/PLASMA TV 33-46INCH","TOSHIBA",499.99,"40BV700B",192.00,"IN"
5297313,"LCD TV <32INCH","BUSH",199.99,"LT24M4",0.00,"IN"
5297337,"LCD TV 32INCH","SONY",329.99,"KDL32BX300",0.00,"CB"
"5297344","LCD/PLASMA TV 33-46INCH","SONY",799.99,"KDL 40BX400U",0.00,"CB"
5297344,"LCD/PLASMA TV 33-46INCH","SONY",799.99,"KDL 40BX400U",0.00,"CB"
5297667,"LCD TV <32INCH","SAMSUNG",179.99,"LE19D450",0.00,"CB"
5297674,"LCD TV <32INCH","SAMSUNG",199.99,"LE22D450",0.00,"CB"
5297681,"LCD TV <32INCH","SAMSUNG",299.99,"LE26D450",0.00,"CB"
5297698,"LCD TV 32INCH","SAMSUNG",329.99,"LE32D450",0.00,"CB"
5297708,"LCD TV 32INCH","SAMSUNG",369.99,"LE32D550",0.00,"CB"
5297715,"LCD/PLASMA TV 33-46INCH","SAMSUNG",449.99,"LE37D550",0.00,"CB"
5297722,"LCD/PLASMA TV 33-46INCH","SAMSUNG",499.99,"LE40D550",0.00,"CB"
5297739,"LCD TV 32INCH","SAMSUNG",429.99,"LE32D580",0.00,"CB"
5297746,"LCD/PLASMA TV 33-46INCH","SAMSUNG",399.99,"LE37D580",0.00,"CB"
5297753,"LCD/PLASMA TV 33-46INCH","SAMSUNG",499.99,"LE40D580",0.00,"CB"
5297760,"LCD TV 32INCH","SAMSUNG",449.99,"UE32D4000",0.00,"CB"
5297777,"LCD/PLASMA TV 33-46INCH","SAMSUNG",659.99,"UE40D5000",0.00,"CB"
5297784,"LCD TV 32INCH","SAMSUNG",549.99,"UE32D5520",0.00,"CB"
5297801,"LCD/PLASMA TV 33-46INCH","SAMSUNG",729.99,"UE40D5520",0.00,"CB"
5297832,"LCD TV <32INCH","SONY",299.99,"KDL22EX320BU",0.00,"CB"
5297849,"LCD TV/DVD COMBI <32INCH","SONY",299.99,"KDL22CX320BU",0.00,"CB"
5297863,"LCD TV <32INCH","SONY",349.99,"KDL24EX320BU",0.00,"CB"
5297870,"LCD TV <32INCH","SONY",389.99,"KDL26EX320BU",0.00,"CB"
5297887,"LCD TV/DVD COMBI 32INCH+","TOSHIBA",309.99,"32DV501B",127.80,"IN"
5297904,"LCD TV 32INCH","PANASONIC",379.99,"TX-L32C3B",0.00,"CB"
5297911,"LCD TV <32INCH","PANASONIC",299.99,"TX-L19E3B",0.00,"CB"
5297928,"LCD TV 32INCH","TOSHIBA",329.99,"32BV801B",137.40,"IN"
5297935,"LCD TV 32INCH","SONY",429.99,"KDL32CX520BU",0.00,"CB"
5297942,"LCD TV 32INCH","PANASONIC",449.99,"TX-L32U3B",0.00,"CB"
5297959,"LCD TV 32INCH","SONY",499.99,"KDL32CX523BU",0.00,"CB"
5298013,"LCD/PLASMA TV 33-46INCH","SAMSUNG",549.99,"UE37D5000",0.00,"CB"
5298020,"LCD/PLASMA TV 33-46INCH","PANASONIC",629.99,"TX-L37E3B",0.00,"CB"
5298051,"LCD/PLASMA TV 33-46INCH","TOSHIBA",429.99,"40BV801B",183.00,"IN"
5298068,"LCD/PLASMA TV 33-46INCH","PANASONIC",569.99,"TX-L42U3B",0.00,"CB"
5298075,"LCD/PLASMA TV 33-46INCH","SONY",549.99,"KDL40CX520BU",0.00,"CB"
5298082,"LCD/PLASMA TV 33-46INCH","SONY",699.99,"KDL40CX523BU",0.00,"CB"
5298154,"LCD TV <32INCH","HITACHI",279.99,"L26VG07",103.36,"IN"
5298178,"LCD TV 32INCH","BUSH",229.99,"BLCD32H8",0.00,"IN"
5298219,"LCD TV <32INCH","SAMSUNG",229.99,"UE19D4000",0.00,"CB"
5298374,"LCD/PLASMA TV 33-46INCH","BUSH (VESTEL)",0.00,"LCD40883F1080P",0.00,"IN"
5298422,"LCD TV 32INCH","HITACHI",279.99,"L32HK04",117.44,"IN"
5298439,"LCD/PLASMA TV 33-46INCH","HITACHI",449.99,"L42VK04U",178.82,"IN"
5298477,"LCD/PLASMA TV 33-46INCH","SONY",349.99,"KDL32BX320BU",0.00,"CB"
5298532,"LCD/PLASMA TV 33-46INCH","TOSHIBA",399.99,"37RL853",180.00,"IN"
5298549,"LCD TV 32INCH","SAMSUNG",350.00,"LE32D400E1WXXU",0.00,"CB"
5298556,"LCD/PLASMA TV 33-46INCH","SAMSUNG",500.00,"LE40D503F7WXXU",0.00,"CB"
5298563,"LCD TV 32INCH","SAMSUNG",400.00,"UE32D4003BWXXU",0.00,"CB"
5298570,"LCD/PLASMA TV 33-46INCH","PANASONIC",700.00,"42E3B",0.00,"CB"
5298587,"LCD TV 32INCH","EVOTEL",200.00,"32 INCH",0.00,"IN"
5298594,"LCD TV <32INCH","SONY",350.00,"22EX310WU",0.00,"CB"
5298604,"LCD TV <32INCH","SONY",350.00,"22EX310BU",0.00,"CB"
5298611,"LCD/PLASMA TV 33-46INCH","SONY",550.00,"KDL40BX420BU",0.00,"CB"
5299249,"LCD TV 32INCH","PANASONIC",350.00,"TX-L32C4B",0.00,"CB"
5299263,"LCD/PLASMA TV 33-46INCH","BUSH (VESTEL)",599.99,"LCD42911FHD3D",0.00,"IN"
5299359,"LCD/PLASMA TV 33-46INCH","BUSH (VESTEL)",799.99,"LCD37 3D",0.00,"IN"
5363247,"LCD/PLASMA TV 33-46INCH","BUSH",499.99,"LCD37T16HD",0.00,"IN"
5363670,"LCD/PLASMA TV 33-46INCH","PANASONIC",799.99,"TX-P42C10B         ",0.00,"CB"
5363687,"LCD/PLASMA TV 33-46INCH","WHARFEDALE",399.99,"L37TA6A",0.00,"IN"
5363773,"LCD/PLASMA TV 33-46INCH","HITACHI",499.99,"37LD8D20",225.46,"IN"
5363821,"LCD/PLASMA TV 33-46INCH","WHARFEDALE (VESTEL)",489.99,"LCD42F1080P",0.00,"IN"
5363838,"LCD/PLASMA TV 33-46INCH","PANASONIC",831.89,"42PZ8",0.00,"CB"
5363869,"LCD/PLASMA TV 33-46INCH","PANASONIC",1174.49,"TH-42PZ81B",0.00,"CB"
5364033,"LCD/PLASMA TV 33-46INCH","PANASONIC",1399.99,"TH-46PZ80B",0.00,"CB"
5364442,"LCD/PLASMA TV 47INCH+","PANASONIC",1565.99,"TH-50PZ81B",0.00,"CB"
5365173,"LCD/PLASMA TV 33-46INCH","SONY",1499.99,"KDL40X3000U",0.00,"CB"
5365214,"LCD/PLASMA TV 33-46INCH","SONY",2399.99,"KDL46X3000U",0.00,"CB"
5365221,"LCD/PLASMA TV 33-46INCH","SONY",2499.99,"KDL46X3500U",0.00,"CB"
5365245,"LCD/PLASMA TV 33-46INCH","ACOUSTIC SOLUTIONS (VESTEL)",429.99,"LCD42761HDF",0.00,"IN"
5365290,"LCD/PLASMA TV 47INCH+","WHARFEDALE (VESTEL)",699.99,"LCD47F1080P",0.00,"IN"
5365575,"LCD/PLASMA TV 33-46INCH","SONY",1549.99,"KDL 40X3500U",0.00,"CB"
5365582,"LCD/PLASMA TV 47INCH+","SONY",2899.99,"KDL52X3500U",0.00,"CB"
5365616,"LCD/PLASMA TV 33-46INCH","ACOUSTIC SOLUTIONS (VESTEL)",391.49,"LCD37762 HDF",0.00,"IN"
5365692,"LCD/PLASMA TV 33-46INCH","HITACHI",587.19,"L42VP01",245.98,"IN"
5365719,"LCD/PLASMA TV 33-46INCH","PANASONIC",782.99,"42PX8",0.00,"CB"
5365733,"LCD/PLASMA TV 33-46INCH","PANASONIC",684.99,"37PX8",0.00,"CB"
5365757,"LCD/PLASMA TV 33-46INCH","PANASONIC",782.99,"TX-37LZD80",0.00,"CB"
5365764,"LCD/PLASMA TV 33-46INCH","PANASONIC",599.99,"TX-P37X10B",0.00,"CB"
5365771,"LCD/PLASMA TV 33-46INCH","PANASONIC",599.00,"TX-P42X10B",0.00,"CB"
5365788,"LCD/PLASMA TV 47INCH+","PANASONIC",899.99,"TX-P50X10B",0.00,"CB"
5365795,"LCD/PLASMA TV 33-46INCH","PANASONIC",999.99,"TX-P42G10B",0.00,"CB"
5365805,"LCD/PLASMA TV 47INCH+","SAMSUNG",899.99,"LE37B650T2WXXU",0.00,"CB"
5365812,"LCD/PLASMA TV 47INCH+","SAMSUNG",978.69,"PS50A558S1FX",0.00,"CB"
5365829,"LCD/PLASMA TV 33-46INCH","SAMSUNG",999.99,"LE40B650T2WXXU",0.00,"CB"
5365836,"LCD/PLASMA TV 33-46INCH","SAMSUNG",1299.99,"LE46B650T2WXXU",0.00,"CB"
5365843,"LCD/PLASMA TV 47INCH+","SAMSUNG",1999.99,"LE55B650T2WXXU",0.00,"CB"
5365850,"LCD/PLASMA TV 33-46INCH","SAMSUNG",629.99,"PS42B451B2WXXU",0.00,"CB"
5365867,"LCD/PLASMA TV 47INCH+","SAMSUNG",879.99,"PS50B451B2W",0.00,"CB"
5365874,"LCD/PLASMA TV 33-46INCH","SONY",849.99,"KDL37V5500U",0.00,"CB"
5365881,"LCD/PLASMA TV 33-46INCH","SONY",629.97,"KDL37S5500U",0.00,"CB"
5365898,"LCD/PLASMA TV 33-46INCH","SONY",789.97,"KDL40S5500U",0.00,"CB"
5365908,"LCD/PLASMA TV 33-46INCH","SONY",999.00,"KDL40V5500U",0.00,"CB"
5365915,"LCD/PLASMA TV 33-46INCH","TOSHIBA",699.99,"37XV503DB",294.90,"IN"
5365922,"LCD/PLASMA TV 33-46INCH","TOSHIBA",879.98,"42XV503DB",368.68,"IN"
5365939,"LCD/PLASMA TV 33-46INCH","SONY",999.97,"KDL40W5500U",0.00,"CB"
5365946,"LCD/PLASMA TV 33-46INCH","TOSHIBA",1799.99,"46ZF355DB",663.62,"IN"
5365960,"LCD/PLASMA TV 33-46INCH","SONY",733.99,"KDL37V4000",0.00,"CB"
5365977,"LCD/PLASMA TV 33-46INCH","SONY",880.79,"KDL40L4000",0.00,"CB"
5365984,"LCD/PLASMA TV 33-46INCH","SONY",622.99,"KDL40V4000",0.00,"CB"
5365991,"LCD/PLASMA TV 33-46INCH","SONY",978.69,"KDL40W4000",0.00,"CB"
5366000,"LCD/PLASMA TV 33-46INCH","SONY",1370.19,"KDL46W4000",0.00,"CB"
5366017,"LCD/PLASMA TV 47INCH+","SONY",1467.99,"KDL52V4000",0.00,"CB"
5366024,"LCD/PLASMA TV 47INCH+","SONY",1761.69,"KDL52W4000",0.00,"CB"
5366031,"LCD/PLASMA TV 33-46INCH","SONY",1199.99,"KDL46V5500U",0.00,"CB"
5366048,"LCD/PLASMA TV 33-46INCH","SONY",1449.99,"KDL46W5500U",0.00,"CB"
5366055,"LCD/PLASMA TV 47INCH+","SONY",1899.99,"KDL52W5500U",0.00,"CB"
5366079,"LCD/PLASMA TV 47INCH+","SONY",1499.99,"KDL52V5500U",0.00,"CB"
5366086,"LCD/PLASMA TV 33-46INCH","SAMSUNG",679.99,"LE37B550A5WQXU",0.00,"CB"
5366110,"LCD/PLASMA TV 47INCH+","TOSHIBA",2299.99,"52ZF335D",847.96,"IN"
5366127,"LCD/PLASMA TV 33-46INCH","SAMSUNG",799.99,"LE40B550A5WQXU",0.00,"CB"
5366165,"LCD/PLASMA TV 33-46INCH","SAMSUNG",587.19,"LE37A457C1DX",0.00,"CB"
5366172,"LCD/PLASMA TV 33-46INCH","SAMSUNG",636.19,"LE40A457C1DX",0.00,"CB"
5366189,"LCD/PLASMA TV 33-46INCH","SAMSUNG",714.49,"LE40A457C1DX",0.00,"CB"
5366196,"LCD/PLASMA TV 33-46INCH","SAMSUNG",636.19,"LE37A558P3FX",0.00,"CB"
5366206,"LCD/PLASMA TV 33-46INCH","SAMSUNG",684.99,"LE40A558P3FX",0.00,"CB"
5366213,"LCD/PLASMA TV 33-46INCH","SAMSUNG",978.69,"LE46A558P3FX",0.00,"CB"
5366220,"LCD/PLASMA TV 47INCH+","SAMSUNG",1272.29,"LE52A558P3FX",0.00,"CB"
5366237,"LCD/PLASMA TV 33-46INCH","SAMSUNG",587.19,"PS42A457P1DX",0.00,"CB"
5366244,"LCD/PLASMA TV 47INCH+","SAMSUNG",782.99,"PS50A457P1DX",0.00,"CB"
5366347,"LCD/PLASMA TV 33-46INCH","JVC",899.99,"LT 42DR9BJ",360.00,"IN"
5366354,"LCD/PLASMA TV 33-46INCH","JVC",1499.99,"LT 42DS9BJ",570.00,"IN"
5366361,"LCD/PLASMA TV 33-46INCH","JVC",1799.99,"LT 46DS9BJ",684.00,"IN"
5366488,"LCD/PLASMA TV 33-46INCH","WHARFEDALE",489.39,"LTF37K1OB",0.00,"IN"
5366495,"LCD/PLASMA TV 33-46INCH","WHARFEDALE",549.99,"LTF42K1CB",0.00,"IN"
5366505,"LCD/PLASMA TV 33-46INCH","SAMSUNG",1299.97,"LE40B7020VWXXU",0.00,"CB"
5366512,"LCD/PLASMA TV 33-46INCH","SAMSUNG",831.89,"LE40A656A1FXXU",0.00,"CB"
5366529,"LCD/PLASMA TV 33-46INCH","TOSHIBA",599.99,"37AV615DB",232.43,"IN"
5366536,"LCD/PLASMA TV 33-46INCH","TOSHIBA",649.99,"37AV635DB",245.11,"IN"
5366543,"LCD/PLASMA TV 33-46INCH","SAMSUNG",1076.59,"LE46A656A1FXXU",0.00,"CB"
5366574,"LCD/PLASMA TV 33-46INCH","BUSH",599.99,"LT42M1CF",0.00,"IN"
5366581,"LCD/PLASMA TV 33-46INCH","ACOUSTIC SOLUTIONS (VESTEL)",469.79,"LCD42761F1080P",0.00,"IN"
5366598,"LCD/PLASMA TV 33-46INCH","ACOUSTIC SOLUTIONS (VESTEL)",440.39,"LCD37761F1080P",0.00,"IN"
5366608,"LCD/PLASMA TV 47INCH+","WHARFEDALE",782.99,"LTF47K1CB",0.00,"IN"
5366615,"LCD/PLASMA TV 47INCH+","SAMSUNG",1565.99,"LE52A656A1FXXU",0.00,"CB"
5366639,"LCD/PLASMA TV 33-46INCH","SONY",1174.49,"KDL46V4000",0.00,"CB"
5366646,"LCD/PLASMA TV 33-46INCH","SAMSUNG",769.98,"LE37A558P3FXXU",0.00,"CB"
5366653,"LCD/PLASMA TV 33-46INCH","SAMSUNG",819.98,"LE40A558P3FXXU",0.00,"CB"
5366660,"LCD/PLASMA TV 33-46INCH","SAMSUNG",769.98,"PS42A457P1DXXU",0.00,"CB"
5366677,"LCD/PLASMA TV 47INCH+","SAMSUNG",969.98," PS50A457P1DXXUDXXU",0.00,"CB"
5366749,"LCD/PLASMA TV 33-46INCH","SONY",819.98,"KDL40V4000",0.00,"CB"
5366756,"LCD/PLASMA TV 33-46INCH","HITACHI",519.98,"37LD8D20",225.46,"IN"
5366763,"LCD/PLASMA TV 33-46INCH","WHARFEDALE",619.98,"LTF37K1",0.00,"IN"
5366770,"LCD/PLASMA TV 33-46INCH","ACOUSTIC SOLUTIONS (VESTEL)",599.98,"LCD42761F1080P",0.00,"IN"
5366787,"LCD/PLASMA TV 33-46INCH","WHARFEDALE",669.98,"LTF42K1",0.00,"IN"
5366804,"LCD/PLASMA TV 33-46INCH","PANASONIC",919.98,"TH 42PX80B",0.00,"CB"
5367119,"LCD/PLASMA TV 33-46INCH","TOSHIBA",636.19,"37XV553DB",238.97,"IN"
5367133,"LCD/PLASMA TV 33-46INCH","SAMSUNG",782.99,"LE37A656A1FXXU",0.00,"CB"
5367140,"LCD/PLASMA TV 33-46INCH","PANASONIC",978.69,"TX-37LZD81",0.00,"CB"
5367188,"LCD/PLASMA TV 33-46INCH","TOSHIBA",684.99,"42XV553DB",276.00,"IN"
5367195,"LCD/PLASMA TV 33-46INCH","SAMSUNG",1174.49,"LE40A786R1MXXU",0.00,"CB"
5367229,"LCD/PLASMA TV 33-46INCH","SAMSUNG",1174.49,"LE40A856S1MXXU",0.00,"CB"
5367250,"LCD/PLASMA TV 47INCH+","PANASONIC",1272.29,"TH-50PZ80B",0.00,"CB"
5367267,"LCD/PLASMA TV 33-46INCH","PANASONIC",831.89,"TX-37LZD85",0.00,"CB"
5367274,"LCD/PLASMA TV 47INCH+","SAMSUNG",1272.29,"PS50A656T1FXXU",0.00,"CB"
5367281,"LCD/PLASMA TV 47INCH+","BUSH",999.99,"LCD52786F1080P",0.00,"IN"
5367315,"LCD/PLASMA TV 33-46INCH","BUSH",508.89,"LT42M1CF",0.00,"IN"
5367322,"LCD/PLASMA TV 47INCH+","SAMSUNG",802.49,"PS50A457P1DXXU",0.00,"CB"
5367339,"LCD/PLASMA TV 33-46INCH","SAMSUNG",606.69,"PS42A457P",0.00,"CB"
5367377,"LCD/PLASMA TV 33-46INCH","ACOUSTIC SOLUTIONS (VESTEL)",459.89,"LCD37761F1080P",0.00,"IN"
5367391,"LCD/PLASMA TV 33-46INCH","PANASONIC",851.39,"42PZ80B",0.00,"CB"
5367401,"LCD/PLASMA TV 33-46INCH","SAMSUNG",655.69,"LE40A457C1DXXU",0.00,"CB"
5367418,"LCD/PLASMA TV 33-46INCH","ACOUSTIC SOLUTIONS (VESTEL)",489.29,"LCD42761F1080P",0.00,"IN"
5367425,"LCD/PLASMA TV 33-46INCH","HITACHI",606.69,"L42VP01",251.80,"IN"
5367470,"LCD/PLASMA TV 33-46INCH","BUSH",599.07,"LT42M1C",0.00,"IN"
5367504,"LCD/PLASMA TV 33-46INCH","BUSH",599.57,"LT42M1C/CHT3DVD",0.00,"IN"
5367573,"LCD/PLASMA TV 33-46INCH","SONY",1174.49,"KDL40W4500U",0.00,"CB"
5367580,"LCD/PLASMA TV 33-46INCH","SONY",1614.89,"KDL46W4500U",0.00,"CB"
5367597,"LCD/PLASMA TV 47INCH+","SONY",2153.19,"KDL52W4500U",0.00,"CB"
5367614,"LCD/PLASMA TV 33-46INCH","SONY",3621.29,"KDL46X4500U",0.00,"CB"
5367638,"LCD/PLASMA TV 47INCH+","SONY",4893.59,"KDL52X4500",0.00,"CB"
5367645,"LCD/PLASMA TV 33-46INCH","SONY",1399.00,"KDL40Z4500",0.00,"CB"
5367652,"LCD/PLASMA TV 33-46INCH","SONY",1649.99,"KDL46Z4500",0.00,"CB"
5367669,"LCD/PLASMA TV 47INCH+","SONY",2349.99,"KDL52Z4500",0.00,"CB"
5367700,"LCD/PLASMA TV 33-46INCH","TOSHIBA",599.99,"37RV635DB",261.00,"IN"
5367717,"LCD/PLASMA TV 33-46INCH","TOSHIBA",649.00,"42AV635DB",287.37,"IN"
5367724,"LCD/PLASMA TV 33-46INCH","TOSHIBA",699.97,"42RV635DB",304.20,"IN"
5367731,"LCD/PLASMA TV 33-46INCH","SAMSUNG",1049.99,"LE46B550A5WQXU",0.00,"CB"
5367748,"LCD/PLASMA TV 47INCH+","SAMSUNG",1099.99,"PS50B551T3WXXU",0.00,"CB"
5367755,"LCD/PLASMA TV 33-46INCH","BUSH",549.99,"P42Y638EB",0.00,"IN"
5367779,"LCD/PLASMA TV 33-46INCH","SAMSUNG",1999.99,"LE46B7020VWXXU",0.00,"CB"
5367793,"LCD/PLASMA TV 47INCH+","SAMSUNG",2799.99,"LE55B7020VWXXU",0.00,"CB"
5367803,"LCD/PLASMA TV 33-46INCH","PANASONIC",899.99,"TX-L37G10B",0.00,"CB"
5367810,"LCD/PLASMA TV 33-46INCH","PANASONIC",599.97,"TX-L37S10B",0.00,"CB"
5367827,"LCD/PLASMA TV 33-46INCH","PANASONIC",799.99,"TXL42A10B",0.00,"CB"
5367834,"LCD/PLASMA TV 33-46INCH","PANASONIC",1379.99,"TX-P46G10B",0.00,"CB"
5367889,"LCD/PLASMA TV 33-46INCH","SONY",899.00,"KDL37V550U",0.00,"CB"
5367896,"LCD/PLASMA TV 33-46INCH","SAMSUNG",599.99,"PS42C450",0.00,"CB"
5367906,"LCD/PLASMA TV 33-46INCH","BUSH",579.99,"A642F",0.00,"IN"
5367913,"LCD/PLASMA TV 33-46INCH","BUSH",699.99,"S642F",0.00,"IN"
5367920,"LCD/PLASMA TV 47INCH+","BUSH",749.99,"A647F",0.00,"IN"
5367937,"LCD/PLASMA TV 33-46INCH","BUSH",529.99,"A637F",0.00,"IN"
5367951,"LCD/PLASMA TV 33-46INCH","SONY",1299.99,"KDL40WE5BU",0.00,"CB"
5367982,"LCD/PLASMA TV 47INCH+","SAMSUNG",799.99,"PS50C450",0.00,"CB"
5367999,"LCD/PLASMA TV 47INCH+","PANASONIC",1299.99,"TXP50G10B",0.00,"CB"
5368008,"LCD/PLASMA TV 47INCH+","PANASONIC",1199.99,"TXP50S10B",0.00,"CB"
5368015,"LCD/PLASMA TV 33-46INCH","PANASONIC",694.99,"TXP42S10B",0.00,"CB"
5368022,"LCD/PLASMA TV 33-46INCH","ALBA (VESTEL)",479.99,"LCD37880F1080P",0.00,"IN"
5368039,"LCD/PLASMA TV 33-46INCH","ALBA (VESTEL)",599.99,"LCD42880F1080P",0.00,"IN"
5368046,"LCD/PLASMA TV 33-46INCH","SONY",1599.99,"KDL46WE5BU",0.00,"CB"
5368053,"LCD/PLASMA TV 33-46INCH","HITACHI",599.99,"L42LDF30",258.02,"IN"
5368077,"LCD/PLASMA TV 33-46INCH","BUSH",649.97,"A642F",0.00,"IN"
5368084,"LCD/PLASMA TV 33-46INCH","BUSH",749.99,"S642F",0.00,"IN"
5368091,"LCD/PLASMA TV 33-46INCH","BUSH",599.97,"A637F/",0.00,"IN"
5368101,"LCD/PLASMA TV 47INCH+","SAMSUNG",899.99,"PS50C550",0.00,"CB"
5368170,"LCD/PLASMA TV 33-46INCH","ALBA (VESTEL)",499.49,"LCD37880F1080P",0.00,"IN"
5368194,"LCD/PLASMA TV 33-46INCH","SAMSUNG",819.49,"LE40B550A5WXX",0.00,"CB"
5368211,"LCD/PLASMA TV 33-46INCH","BUSH",719.49,"S642F",0.00,"IN"
5368228,"LCD/PLASMA TV 33-46INCH","ALBA (VESTEL)",519.49,"LCD42880F1080P",0.00,"IN"
5368235,"LCD/PLASMA TV 33-46INCH","BUSH",599.49,"A642F",0.00,"IN"
5368259,"LCD/PLASMA TV 33-46INCH","SAMSUNG",649.49,"PS42B451",0.00,"CB"
5368273,"LCD/PLASMA TV 47INCH+","SAMSUNG",749.00,"PS50B451",0.00,"CB"
5368280,"LCD/PLASMA TV 33-46INCH","BUSH",679.99,"S642F1",0.00,"IN"
5368297,"LCD/PLASMA TV 33-46INCH","ALBA (VESTEL)",579.99,"LCD46762F1080P",0.00,"IN"
5368307,"LCD/PLASMA TV 33-46INCH","ALBA (VESTEL)",449.99,"LCD40781F1080P",0.00,"IN"
5368314,"LCD/PLASMA TV 33-46INCH","ALBA",599.99,"L42M1CFA",0.00,"IN"
5368321,"LCD/PLASMA TV 33-46INCH","SAMSUNG",549.97,"PS42B430",0.00,"CB"
5368338,"LCD/PLASMA TV 47INCH+","SAMSUNG",899.99,"PS50B430",0.00,"CB"
5368352,"LCD/PLASMA TV 47INCH+","BUSH (VESTEL)",999.99,"LCD52F1080P100HZ",0.00,"IN"
5368369,"LCD/PLASMA TV 33-46INCH","SAMSUNG",1249.99,"UE37B6000",0.00,"CB"
5368400,"LCD/PLASMA TV 33-46INCH","SONY",949.99,"KDL46EX403U",0.00,"CB"
5368417,"LCD/PLASMA TV 33-46INCH","SONY",1249.99,"KDL46EX503U",0.00,"CB"
5368424,"LCD/PLASMA TV 47INCH+","SONY",1499.99,"KDL55EX503U",0.00,"CB"
5368541,"LCD/PLASMA TV 33-46INCH","SAMSUNG",899.99,"LE46C530",0.00,"CB"
5368558,"LCD/PLASMA TV 33-46INCH","SAMSUNG",699.99,"LE37C580",0.00,"CB"
5368565,"LCD/PLASMA TV 33-46INCH","SAMSUNG",799.99,"LE40C580",0.00,"CB"
5368572,"LCD/PLASMA TV 33-46INCH","SAMSUNG",999.99,"LE46C580",0.00,"CB"
5368589,"LCD/PLASMA TV 33-46INCH","SAMSUNG",849.99,"UE37C5100",0.00,"CB"
5368596,"LCD/PLASMA TV 33-46INCH","SAMSUNG",999.99,"UE40C5100",0.00,"CB"
5368606,"LCD/PLASMA TV 33-46INCH","SAMSUNG",1299.99,"UE46C5100",0.00,"CB"
5368747,"LCD/PLASMA TV 33-46INCH","PANASONIC",599.99,"TX-P37X20B",0.00,"CB"
5368754,"LCD/PLASMA TV 33-46INCH","PANASONIC",699.99,"TX-P42X20B",0.00,"CB"
5368761,"LCD/PLASMA TV 47INCH+","PANASONIC",849.99,"TX-P50X20B",0.00,"CB"
5368778,"LCD/PLASMA TV 33-46INCH","PANASONIC",899.99,"TX-P42S20B",0.00,"CB"
5368785,"LCD/PLASMA TV 47INCH+","PANASONIC",1199.99,"TX-P50S20B",0.00,"CB"
5368792,"LCD/PLASMA TV 33-46INCH","PANASONIC",1149.99,"TXP42G20B",0.00,"CB"
5368802,"LCD/PLASMA TV 47INCH+","PANASONIC",1499.99,"TXP50G20B",0.00,"CB"
5368819,"LCD/PLASMA TV 33-46INCH","PANASONIC",799.99,"TX-L37S20B",0.00,"CB"
5368864,"LCD/PLASMA TV 33-46INCH","TOSHIBA",649.99,"40IN KV",252.00,"IN"
5368871,"LCD/PLASMA TV 33-46INCH","SAMSUNG",999.99,"LE46C750",0.00,"CB"
5368888,"LCD/PLASMA TV 33-46INCH","TOSHIBA",749.99,"40IN RV",276.60,"IN"
5368895,"LCD/PLASMA TV 33-46INCH","BUSH (VESTEL)",699.99,"LCD46F1080P",0.00,"IN"
5368905,"LCD/PLASMA TV 33-46INCH","HITACHI",999.99,"L46VN05U",280.85,"IN"
5368912,"LCD/PLASMA TV 33-46INCH","SAMSUNG",799.99,"LE37C650",0.00,"CB"
5368929,"LCD/PLASMA TV 33-46INCH","SAMSUNG",999.99,"LE40C650",0.00,"CB"
5368936,"LCD/PLASMA TV 33-46INCH","SAMSUNG",1199.99,"LE46C650",0.00,"CB"
5368943,"LCD/PLASMA TV 47INCH+","SAMSUNG",1999.99,"LE55C650",0.00,"CB"
5368950,"LCD/PLASMA TV 47INCH+","SAMSUNG",2499.99,"LE60C650",0.00,"CB"
5368967,"LCD/PLASMA TV 33-46INCH","SAMSUNG",1299.99,"LE40C750",0.00,"CB"
5368974,"LCD/PLASMA TV 33-46INCH","SAMSUNG",1599.99,"LE46C750",0.00,"CB"
5368981,"LCD/PLASMA TV 33-46INCH","SONY",749.99,"KDL-40EX403U",0.00,"CB"
5369021,"LCD/PLASMA TV 47INCH+","SAMSUNG",3199.99,"PS63 C7000",0.00,"CB"
5369038,"LCD/PLASMA TV 47INCH+","SAMSUNG",1699.99,"PS50C9600",0.00,"CB"
5369186,"LCD/PLASMA TV 33-46INCH","BUSH (VESTEL)",699.99,"LCD40T2FHD",0.00,"IN"
5369203,"LCD/PLASMA TV 33-46INCH","SONY",799.99,"KDL37EX50",0.00,"CB"
5369210,"LCD/PLASMA TV 33-46INCH","SONY",899.99,"KDL40EX50",0.00,"CB"
5369227,"LCD/PLASMA TV 33-46INCH","SAMSUNG",569.49,"PS42C450",0.00,"CB"
5369234,"LCD/PLASMA TV 47INCH+","SAMSUNG",819.49,"PS50C450",0.00,"CB"
5369296,"LCD/PLASMA TV 33-46INCH","PANASONIC",669.49,"TX-P42X20B",0.00,"CB"
5369306,"LCD/PLASMA TV 33-46INCH","BUSH (VESTEL)",719.49,"LCD42880F1080P",0.00,"IN"
5369313,"LCD/PLASMA TV 33-46INCH","HITACHI",1019.49,"46IN 1080P D",280.85,"IN"
5369375,"LCD/PLASMA TV 33-46INCH","BUSH",519.49,"PT42GY638EB",0.00,"IN"
5369382,"LCD/PLASMA TV 33-46INCH","SONY",899.99,"KDL-40EX503U",0.00,"CB"
5369399,"LCD/PLASMA TV 47INCH+","SAMSUNG",1499.99,"PS550C6900",0.00,"CB"
5369461,"LCD TV/DVD COMBI <32INCH","HITACHI",329.99,"L26DP04U",134.93,"IN"
5369478,"LCD TV <32INCH","SAMSUNG",229.99,"LE19C350",0.00,"CB"
5369485,"LCD/PLASMA TV 47INCH+","SAMSUNG",999.99,"PS50C580",0.00,"CB"
5369519,"LCD/PLASMA TV 33-46INCH","SAMSUNG",949.99,"LE46C580",0.00,"CB"
5369526,"LCD/PLASMA TV 47INCH+","SAMSUNG",999.99,"PS50C9600",0.00,"CB"
5369540,"LCD/PLASMA TV 33-46INCH","PANASONIC",399.99,"TX-P37C2B",0.00,"CB"
5369557,"LCD/PLASMA TV 47INCH+","SAMSUNG",1249.99,"PS50C680",0.00,"CB"
5369564,"LCD/PLASMA TV 33-46INCH","PANASONIC",1499.99,"TX-P42GT20B",0.00,"CB"
5369791,"LCD/PLASMA TV 33-46INCH","SAMSUNG",1199.99,"UE46C5800",0.00,"CB"
5369801,"LCD/PLASMA TV 33-46INCH","HITACHI",799.99,"L42VG08U",273.40,"IN"
5369825,"LCD/PLASMA TV 33-46INCH","HITACHI",1299.99,"L46VG09U",450.39,"IN"
5369832,"LCD/PLASMA TV 33-46INCH","HITACHI",599.99,"L46VFO4V",176.94,"IN"
5369887,"LCD/PLASMA TV 33-46INCH","BUSH",399.99,"BPDP42HD",0.00,"IN"
5369894,"LCD/PLASMA TV 47INCH+","BUSH",599.99,"BPDP50HD",0.00,"IN"
5369973,"LCD/PLASMA TV 33-46INCH","BUSH",599.99,"BPDP42HD",0.00,"IN"
5369997,"LCD/PLASMA TV 33-46INCH","SAMSUNG",619.98,"LE46C530",0.00,"CB"
5370209,"LCD/PLASMA TV 33-46INCH","SAMSUNG",519.98,"PS42C450",0.00,"CB"
5378287,"LCD/PLASMA TV 33-46INCH","HITACHI",619.98,"L46VN05U",253.58,"IN"
5378380,"LCD/PLASMA TV 47INCH+","BUSH",1019.98,"BPDP50HD",0.00,"IN"
5379640,"LCD TV <32INCH","BUSH",199.99,"LT24M3",0.00,"IN"
7470042,"LCD/PLASMA TV 33-46INCH","SAMSUNG",449.99,"PS43D450",0.00,"CB"
7470059,"LCD/PLASMA TV 47INCH+","SAMSUNG",599.99,"PS51D450",0.00,"CB"
7470080,"LCD/PLASMA TV 33-46INCH","SAMSUNG",749.99,"LE46D580",0.00,"CB"
7470097,"LCD/PLASMA TV 33-46INCH","SAMSUNG",699.99,"LE46D530",0.00,"CB"
7470121,"LCD/PLASMA TV 33-46INCH","PANASONIC",699.99,"TX-L42E3B",0.00,"CB"
7470152,"LCD/PLASMA TV 33-46INCH","SONY",749.99,"KDL40EX523BU",0.00,"CB"
7470169,"LCD/PLASMA TV 33-46INCH","PANASONIC",849.99,"TX-L42E30B",0.00,"CB"
7470190,"LCD/PLASMA TV 33-46INCH","SAMSUNG",799.99,"UE46D5000",0.00,"CB"
7470231,"LCD/PLASMA TV 33-46INCH","SONY",1199.99,"KDL46EX524BU",0.00,"CB"
7470262,"LCD/PLASMA TV 33-46INCH","SONY",1499.99,"KDL46EX723BU",0.00,"CB"
7470286,"LCD/PLASMA TV 47INCH+","SONY",1699.99,"KDL55EX723BU",0.00,"CB"
7470293,"LCD/PLASMA TV 33-46INCH","PANASONIC",479.99,"TX-P42C3B",0.00,"CB"
7470303,"LCD/PLASMA TV 33-46INCH","PANASONIC",629.99,"TX-P42U30B",0.00,"CB"
7470310,"LCD/PLASMA TV 33-46INCH","SAMSUNG",569.99,"PS43D490",0.00,"CB"
7470327,"LCD/PLASMA TV 33-46INCH","PANASONIC",689.99,"TX-P42S30B",0.00,"CB"
7470334,"LCD/PLASMA TV 33-46INCH","PANASONIC",899.99,"TX-P42UT30B",0.00,"CB"
7470341,"LCD/PLASMA TV 33-46INCH","PANASONIC",999.99,"TX-P42ST30B",0.00,"CB"
7470358,"LCD/PLASMA TV 47INCH+","PANASONIC",649.99,"TX-P50C3B",0.00,"CB"
7470365,"LCD/PLASMA TV 47INCH+","SAMSUNG",729.99,"PS51D495",0.00,"CB"
7470406,"LCD/PLASMA TV 47INCH+","PANASONIC",1049.99,"TX-P50ST30",0.00,"CB"
7470420,"LCD/PLASMA TV 33-46INCH","BUSH",649.99,"BPDP42HD3D",0.00,"IN"
7470437,"LCD/PLASMA TV 47INCH+","BUSH",799.99,"BPDP50HD3D",0.00,"IN"
7470444,"LCD/PLASMA TV 33-46INCH","BUSH (VESTEL)",599.99,"LCD42FMD100H23D",0.00,"IN"
7470451,"LCD/PLASMA TV 33-46INCH","BUSH (VESTEL)",0.00,"LCD46F10809S",0.00,"IN"
7470547,"LCD/PLASMA TV 47INCH+","BUSH",499.99,"BPDP50HD",0.00,"IN"
7470554,"LCD TV/DVD COMBI <32INCH","HITACHI",249.99,"L26DP04U",102.43,"IN"
7470640,"LCD/PLASMA TV 47INCH+","SAMSUNG",699.99,"PS50B430",0.00,"CB"
7470671,"LCD/PLASMA TV 47INCH+","PANASONIC",999.99,"TXP505730",0.00,"CB"
7470774,"LCD TV/DVD COMBI <32INCH","BUSH",180.00,"BLED24FHDL8DVD",0.00,"IN"
7471003,"LCD/PLASMA TV 33-46INCH","HITACHI",599.99,"L46VF04V",176.94,"IN"
5298642,"LCD TV/DVD COMBI <32INCH","TOSHIBA",169.99,"19DL502",64.80,"IN"
5298745,"LCD TV <32INCH","TOSHIBA",169.99,"22BL502",67.80,"IN"
5298800,"LCD TV/DVD COMBI <32INCH","TOSHIBA",179.99,"22DL502",76.80,"IN"
5298817,"LCD TV/DVD COMBI <32INCH","TOSHIBA",179.99,"22DL504",76.80,"IN"
5298934,"LCD TV/DVD COMBI 32INCH+","TOSHIBA",329.99,"32DV502",127.80,"IN"
5298941,"LCD TV/DVD COMBI 32INCH+","TOSHIBA",329.99,"32DV502W",127.80,"IN"
5298965,"LCD TV 32INCH","TOSHIBA",279.99,"32BV502",106.80,"IN"
5298989,"LCD TV 32INCH","TOSHIBA",279.99,"32BV702",120.60,"IN"
5298996,"LCD TV 32INCH","TOSHIBA",299.99,"32BL502",130.20,"IN"
5299012,"LCD/PLASMA TV 33-46INCH","TOSHIBA",379.99,"40BV702",160.20,"IN"
5299029,"LCD/PLASMA TV 33-46INCH","TOSHIBA",399.99,"40BV705",160.20,"IN"
5299036,"LCD/PLASMA TV 33-46INCH","TOSHIBA",449.99,"40BL702",196.80,"IN"
5298635,"LCD TV <32INCH","SAMSUNG",159.99,"UE19D4003",0.00,"CB"
5298752,"LCD TV <32INCH","SAMSUNG",199.99,"UE22D5003",0.00,"CB"
5298893,"LCD TV <32INCH","SAMSUNG",329.99,"UE26D4003",0.00,"CB"
5299043,"LCD/PLASMA TV 33-46INCH","SAMSUNG",549.99,"UE40D5003",0.00,"CB"
5299421,"LCD/PLASMA TV 33-46INCH","SONY",799.99,"KDL40EX723BU",342.17,"CB"
5299407,"LCD TV <32INCH","PANASONIC",299.99,"TX-L24C3B",125.48,"CB"
5298824,"LCD TV <32INCH","HITACHI",229.99,"L24VG07",69.53,"IN"
5298848,"LCD TV/DVD COMBI <32INCH","HITACHI",249.99,"L24DG07",77.42,"IN"
5298910,"LCD TV/DVD COMBI <32INCH","HITACHI",229.99,"L26DN04",87.98,"IN"
5299218,"LCD/PLASMA TV 33-46INCH","HITACHI",499.99,"42 INCH 3D",188.34,"IN"
7470839,"LCD/PLASMA TV 47INCH+","HITACHI",799.99,"L47VF10U",313.63,"IN"
5298783,"LCD TV/DVD COMBI <32INCH","BUSH (VESTEL)",159.99,"LED22982DVDFHD",0.00,"IN"
5298790,"LCD TV/DVD COMBI <32INCH","BUSH (VESTEL)",159.99,"LED22982DVDFHDW",0.00,"IN"
5298879,"LCD TV <32INCH","ALBA (VESTEL)",189.99,"LCD26947HD",0.00,"IN"
5298886,"LCD TV <32INCH","BUSH (VESTEL)",229.99,"LED26982HD",0.00,"IN"
5298927,"LCD TV/DVD COMBI 32INCH+","ALBA (VESTEL)",249.99,"LCD32947DVDHD",0.00,"IN"
5298958,"LCD TV 32INCH","ALBA (VESTEL)",199.99,"LCD32947HD",0.00,"IN"
5299098,"LCD TV <32INCH","BUSH (VESTEL)",229.99,"LED26982HDT",0.00,"IN"
5299108,"LCD TV/DVD COMBI 32INCH+","BUSH (VESTEL)",349.99,"LED32982DVDHDW",0.00,"IN"
5299366,"LCD TV <32INCH","BUSH (VESTEL)",149.99,"LED24970FHD",0.00,"IN"
5299373,"LCD TV/DVD COMBI <32INCH","BUSH (VESTEL)",169.99,"LED24970DVDFHD",0.00,"IN"
5299380,"LCD TV/DVD COMBI <32INCH","BUSH (VESTEL)",169.99,"LED24970DVDFHDW",0.00,"IN"
5299397,"LCD TV 32INCH","BUSH (VESTEL)",279.99,"LED32982HDT",0.00,"IN"
5299414,"LCD TV 32INCH","BUSH (VESTEL)",349.99,"LED32134FHDBMS",0.00,"IN"
5299074,"LCD/PLASMA TV 33-46INCH","BUSH",299.99,"LCD37FHDA8",0.00,"IN"
5299311,"LCD TV <32INCH","BUSH",299.99,"BLED24FHD3D",0.00,"IN"
5299469,"LCD/PLASMA TV 33-46INCH","BUSH",499.99,"BLED42FHDAE",0.00,"IN"
5299476,"LCD TV 32INCH","BUSH",299.99,"BLED32HDRAE",0.00,"IN"
5299689,"LCD TV 32INCH","SAMSUNG",479.99,"UE32EH5300",0.00,"CB"
5299696,"LCD/PLASMA TV 33-46INCH","SAMSUNG",599.99,"UE40EH5300",0.00,"CB"
5299706,"LCD TV 32INCH","SAMSUNG",399.99,"UE32EH5000",0.00,"CB"
5299713,"LCD/PLASMA TV 33-46INCH","SAMSUNG",499.99,"UE40EH5000",0.00,"CB"
7471089,"LCD/PLASMA TV 33-46INCH","SAMSUNG",899.99,"UE46EH5300",0.00,"CB"
7471096,"LCD/PLASMA TV 47INCH+","SAMSUNG",999.99,"UE55EH5300",0.00,"CB"
7471106,"LCD/PLASMA TV 33-46INCH","SAMSUNG",699.99,"UE46EH5000",0.00,"CB"
7471113,"LCD/PLASMA TV 47INCH+","SAMSUNG",599.99,"PS51E530",0.00,"CB"
5299579,"LCD TV <32INCH","HITACHI",209.99,"L26HN04U",362.29,"IN"
5299919,"LCD TV 32INCH","PANASONIC",399.99,"TX-L32X5B",0.00,"CB"
5299957,"LCD TV 32INCH","SONY",329.99,"KDL32EX310B",0.00,"CB"
9089895,"LCD TV 32INCH","SAMSUNG",379.99,"UE3EH4000WXXU",0.00,"CB"
9089091,"LCD/PLASMA TV 33-46INCH","SONY",499.99,"KDL42EX410B",0.00,"CB"
4981046,"LCD/PLASMA TV 33-46INCH","SONY",1399.99,"KDL46HX853",0.00,"CB"
4981008,"LCD/PLASMA TV 33-46INCH","SAMSUNG",799.99,"UE46EH5300",0.00,"CB"
4981022,"LCD/PLASMA TV 33-46INCH","SONY",1149.99,"KDL46HX753",0.00,"CB"
4980982,"LCD/PLASMA TV 47INCH+","PANASONIC",1449.99,"TX-L47ET50B",0.00,"CB"
4980999,"LCD/PLASMA TV 47INCH+","SAMSUNG",849.99,"PS51E550D",0.00,"CB"
4981015,"LCD/PLASMA TV 33-46INCH","SONY",899.99,"KDL46EX653",0.00,"CB"
4991957,"LCD TV <32INCH","PANASONIC",279.99,"TX L24X5B",0.00,"CB"
4991964,"LCD TV <32INCH","SONY",329.99,"KDL22EX553B",0.00,"CB"
4992059,"LCD TV 32INCH","SONY",659.99,"KDL32HX753",0.00,"CB"
4992107,"LCD/PLASMA TV 33-46INCH","TOSHIBA",499.99,"42RL953",209.00,"IN"
4991892,"LCD/PLASMA TV 33-46INCH","PANASONIC",699.99,"TX-L37ET5B",0.00,"CB"
4991933,"LCD TV <32INCH","SAMSUNG",269.99,"UE22ESS5400",0.00,"CB"
4991940,"LCD TV <32INCH","SAMSUNG",269.99,"UE22ES5410",0.00,"CB"
4992042,"LCD TV 32INCH","PANASONIC",649.99,"TX L32ET5B",0.00,"CB"
4992176,"LCD/PLASMA TV 33-46INCH","PANASONIC",1499.99,"TX L42DT50B",0.00,"CB"
4991902,"LCD/PLASMA TV 33-46INCH","SONY",659.99,"KDL40EX653",0.00,"CB"
4991971,"LCD TV <32INCH","SAMSUNG",329.99,"UE26EH4500",0.00,"CB"
4991988,"LCD TV <32INCH","SONY",399.99,"KDL26EX553W",0.00,"CB"
4992004,"LCD TV 32INCH","TOSHIBA",379.99,"32RL953",168.00,"IN"
4992138,"LCD/PLASMA TV 33-46INCH","SONY",849.99,"KDL40HX753",0.00,"CB"
4992152,"LCD/PLASMA TV 33-46INCH","SONY",1149.99,"KDL40HX853",0.00,"CB"
4992169,"LCD/PLASMA TV 33-46INCH","PANASONIC",1149.99,"TX L42ET50B",0.00,"CB"
4991995,"LCD TV <32INCH","SONY",399.99,"KDL26EX553B",0.00,"CB"
4992028,"LCD TV 32INCH","SONY",529.99,"KDL32EX653",0.00,"CB"
4992080,"LCD/PLASMA TV 33-46INCH","PANASONIC",699.99,"TX L37ET5B",0.00,"CB"
4992114,"LCD/PLASMA TV 33-46INCH","SONY",659.99,"KDL40EX653",0.00,"CB"
9089039,"LCD/PLASMA TV 33-46INCH","PANASONIC",579.99,"TX-L37E5B",0.00,"CB"
7471034,"LCD/PLASMA TV 47INCH+","BUSH",999.99,"LC-55G77A",0.00,"IN"
"AERIALT","TV AERIAL","TV AERIAL",20.00,"AERIAL TEST",0.00,"CB"
