1,"PHONE IN"
2,"PHONE OUT"
3,"FAXED IN"
4,"FAXED OUT"
5,"E-MAIL IN"
6,"E-MAIL OUT"
7,"VISIT IN"
8,"VISIT OUT"
9,"LETTER IN"
10,"LETTER OUT"
11,"A GENERAL NOTE"
12,"WAITING FOR TECHNICAL"
13,"WAITING FOR CUSTOMER"
14,"INFO RECEIVED"
15,"RMA Tracker"